91.185.215.141:9798
91.185.215.141:8421
91.185.215.141:9489
91.185.215.141:6670
91.185.215.141:6709
91.185.215.141:6098
91.185.215.141:5721
91.185.215.141:5256
91.185.215.141:6245
91.185.215.141:8843
131.104.151.124:23558
198.50.230.90:11786
83.91.86.26:9100
58.162.228.40:24438
91.185.215.141:6336
91.185.215.141:6317
76.111.9.108:30607
94.77.199.148:1080
94.70.255.223:1080
82.115.25.9:1080
212.120.32.112:1080
212.120.32.113:1080
71.234.9.56:37073
46.109.207.3:19064
212.120.32.99:1080
212.120.32.114:1080
85.30.233.152:6283
219.65.189.63:1080
118.69.198.212:1080
74.97.42.53:24987
